{
  "title": "Open iPhone Setting",
  "cells": [
    {
      "type": "markdown",
      "data": "``` objc\nNSURL *url = [NSURL URLWithString:UIApplicationOpenSettingsURLString];\nif ([[UIApplication sharedApplication] canOpenURL:url]) {\n  [[UIApplication sharedApplication] openURL:url];\n}\n```"
    }
  ]
}