{
  "title": "7. Jenkins Commands",
  "cells": [
    {
      "type": "markdown",
      "data": "1. Stop Jenkins\n`sudo launchctl unload /Library/LaunchDaemons/org.jenkins-ci.plist`\n\n2. Start Jenkins\n`sudo launchctl load /Library/LaunchDaemons/org.jenkins-ci.plist`\n\n3. Change Port\n`sudo defaults write /Library/Preferences/org.jenkins-ci httpPort 7070`\n`sudo launchctl unload /Library/LaunchDaemons/org.jenkins-ci.plist`\n`sudo launchctl load /Library/LaunchDaemons/org.jenkins-ci.plist`\n"
    }
  ]
}