{
  "title": "Coding Style",
  "cells": [
    {
      "type": "markdown",
      "data": "## common style\n\n1. 命名方式:\n    * class name, struct name: 大寫開頭, 駝峰式命名\n   * function, enum: 小寫開頭駝峰式命名\n   * macros: 全大寫, 中間用底線隔開 ex. VIEW_CONTROLLER\n   * class's prrperty: name + property type ex. titleLabel\n\n2. Initialize object:\n    * 直接使用()做初始化 ex. UIImage() or UILabel()\n  \n3. Class's property\n    *前面加上self ex. self.titleLabel\n\n4. Function\n    * 不編寫超過 20 行 code, 請拆成數個小 function\n\n\n\n## [Objective-C style guide](https://github.com/raywenderlich/objective-c-style-guide)\n"
    },
    {
      "type": "markdown",
      "data": ""
    }
  ]
}