{
  "title": "UIControl, UIview, UIButton",
  "cells": [
    {
      "type": "markdown",
      "data": "## about `exclusiveTouch`\n\n### 使用情境\n當畫面中有多個控制物件時，當同時有多個控制物件被觸發點即時，可能造成多的 action 同時觸發造成畫面錯亂、黑屏、甚至 Crash。\n\n### 解決方式\n之前有通過設定變量的方式來進行控制，例如已经點擊按鈕觸發了某件事件，則修改變量的 Flag，等返回時再將變量復原。但是這種很大的一個弊端：当同一个頁面上按鈕較多時，處理起来的邏輯會非常繁琐。\n\n比較完美的解决方法：設置 button 的 `exclusiveTouch` 為 YES，系统預設為  NO。\n`exclusiveTouch`：是否接收處理唯一的行為(Touch or Click)事件。設置為 YES 後，在同一個 window 上，多個可控物件進行操作的時候，會優先處理**第一個 Event**。\n\n下面是 Apple 官方的解釋：\nA Boolean value that indicates whether the receiver handles touch events exclusively.\nSetting this property to YES causes the receiver to block the delivery of touch events to other views in the same window. The default value of this property is NO.\n\n多个按钮，代码设置如下：\n```objc\n// 將多個按鈕的 exclusiveTouch 均設置為 YES\n[self.agentBtn setExclusiveTouch:YES];\n[self.stationBtn setExclusiveTouch:YES];\n[self.photoBtn setExclusiveTouch:YES];\n[self.practicalBtn setExclusiveTouch:YES];\n[self.newsBtn setExclusiveTouch:YES];\n[self.messageBtn setExclusiveTouch:YES];\n[self.trustlineBtn setExclusiveTouch:YES];\n[self.moreBtn setExclusiveTouch:YES];\n```\n> 這樣，能比較好的處理一個畫面中有多個可控物件同時被觸發造成的各種奇耙問题了"
    }
  ]
}