{
  "title": "19. Remove Nth Node From End of List",
  "cells": [
    {
      "type": "markdown",
      "data": "Given a linked list, remove the n-th node from the end of list and return its head.\n###Example:\n```\nGiven linked list: 1->2->3->4->5, and n = 2.\n\nAfter removing the second node from the end, the linked list becomes 1->2->3->5.\n```\n###Note:\nGiven n will always be valid.\n###Follow up:\nCould you do this in one pass?\n\n---"
    },
    {
      "type": "markdown",
      "data": "###Solution:\n```swift\n/**\n * Definition for singly-linked list.\n * public class ListNode {\n *     public var val: Int\n *     public var next: ListNode?\n *     public init(_ val: Int) {\n *         self.val = val\n *         self.next = nil\n *     }\n * }\n */\n\n//1->2->3->4->5->6, n = 2;\n//=> 1->2->3->4->6\n\nclass Solution {\n    func removeNthFromEnd(_ head: ListNode?, _ n: Int) -> ListNode? { \n        var output = ListNode(0);\n        output.next = head;\n        var fast:ListNode? = output;\n        var slow:ListNode? = output;\n        \n        for i in 0..<n {\n            fast = fast!.next\n        }\n        \n        while(fast?.next != nil) {\n            fast = fast!.next\n            slow = slow!.next \n        }\n        \n        slow!.next = slow!.next?.next\n        return output.next;  \n    }\n}\n```"
    }
  ]
}