{
  "created_at" : 1564475399,
  "tags" : [

  ],
  "title" : "34. Find First and Last Position of Element in Sorted Array",
  "updated_at" : 1564475538,
  "uuid" : "9F31FA5C-9F94-43FD-88D3-FEE202AEEEF1"
}