{
  "title": "33. Search in Rotated Sorted Array",
  "cells": [
    {
      "type": "markdown",
      "data": "Suppose an array sorted in ascending order is rotated at some pivot unknown to you beforehand.\n(i.e., `[0,1,2,4,5,6,7]` might become `[4,5,6,7,0,1,2]`).\nYou are given a target value to search. If found in the array return its index, otherwise return `-1`.\nYou may assume no duplicate exists in the array.\nYour algorithm's runtime complexity must be in the order of _O_(log n).\n\n###Example 1:\n```\nInput: nums = [4,5,6,7,0,1,2], target = 0\nOutput: 4\n```\n###Example 2:\n```\nInput: nums = [4,5,6,7,0,1,2], target = 3\nOutput: -1\n```\n\n---"
    },
    {
      "type": "markdown",
      "data": "###Solution 1:\n```swift\nclass Solution {\n    //traget 1\n    // 7 0 1 2 4 5 6\n    // 4 5 6 7 0 1 2\n    \n    func search(_ nums: [Int], _ target: Int) -> Int {\n    \n        var startIndex = 0;\n        var endIndex = nums.count - 1;\n        \n        while(startIndex <= endIndex) {\n            \n            let startValue = nums[startIndex];\n            let middleIndex = startIndex + (endIndex - startIndex)/2;\n            let middleValue = nums[middleIndex];\n            let endValue = nums[endIndex];\n            \n            if(middleValue == target) {\n                return middleIndex;\n            }\n            else if(middleValue >= startValue) {\n                if(target >= startValue && target < middleValue) {\n                   //  print(\"target >= startValue && target < middleIndex\");\n                     endIndex = middleIndex - 1;\n                }\n                else {\n                     //print(\"target >= startValue && target < middleIndex 222\");\n                     startIndex = middleIndex + 1;\n                }\n            }\n            else if(middleValue < startValue) {\n                 //print(\"midValue <= target\");\n                \n                if(target > middleValue && target <= endValue) {\n                    // print(\"endValue: \\(endValue) && target < middleIndex\");\n                    startIndex = middleIndex + 1;\n                }\n                else {\n                    //  print(\"endValue: \\(endValue) && target < middleIndex 222\");\n                    endIndex = middleIndex - 1;\n                }\n            }\n        }\n\n        return -1;\n    }\n}\n```\n\n###Solution 2:\n```swift\nclass Solution {\n    func search(_ nums: [Int], _ target: Int) -> Int {\n        let chars = Array(nums)\n        var start = 0\n        var end = chars.count - 1\n        \n        while(start <= end) {\n            \n            var middle = start + (end - start) / 2 //(end - start) / 2\n            \n            if(chars[middle] == target) {\n                return middle\n            } else if(chars[middle] >= chars[start]) {\n              if(chars[start] <= target && target <= chars[middle]) {\n                  end = middle  \n              } else {\n                  start = middle + 1\n              }\n                \n            } else {\n              if(chars[middle] <= target && target <= chars[end]) {\n                  start = middle  \n              } else {\n                  end = middle - 1\n              }\n                \n            }\n        }\n        \n        return -1\n    }\n}\n```"
    }
  ]
}