{
  "title": "21. Merge Two Sorted Lists",
  "cells": [
    {
      "type": "markdown",
      "data": "Merge two sorted linked lists and return it as a new list. The new list should be made by splicing together the nodes of the first two lists.\n###Example:\n```\nInput: 1->2->4, 1->3->4\nOutput: 1->1->2->3->4->4\n```\n\n---"
    },
    {
      "type": "markdown",
      "data": "###Solution:\n```swift\n/**\n * Definition for singly-linked list.\n * public class ListNode {\n *     public var val: Int\n *     public var next: ListNode?\n *     public init(_ val: Int) {\n *         self.val = val\n *         self.next = nil\n *     }\n * }\n */\nclass Solution {\n    func mergeTwoLists(_ l1: ListNode?, _ l2: ListNode?) -> ListNode? {\n        var list1 = l1;\n        var list2 = l2;\n        var outputList = ListNode(0);\n        var headNode = outputList;\n        \n        while(list1 != nil && list2 != nil) {    \n            if(list1!.val > list2!.val) {\n                let newNode = ListNode(list2!.val);\n                outputList.next = newNode;\n                outputList = outputList.next!\n                list2 = list2?.next;\n            }\n            else if(list1!.val <= list2!.val) {\n                 print(\"list1: \\(list1!.val)\");\n                \n                let newNode = ListNode(list1!.val);\n                outputList.next = newNode;\n                outputList = outputList.next!\n                list1 = list1?.next;\n\n            }  \n        }\n        \n        if(list1 != nil) {\n            outputList.next = list1;\n        }\n        else if(list2 != nil) {\n             outputList.next = list2;\n        }\n        \n        return headNode.next;\n    }\n}\n```"
    }
  ]
}