{
  "title": "Codable",
  "cells": [
    {
      "type": "markdown",
      "data": "> JSON是目前受到廣泛應用的資料形式, 但在Swift 4以前, 解析JSON到對象裡面並不是一件容易的事情, 有些人會特別寫framework或使用第3方framework來專門處理JSON資料的轉換. Swift 4之後, Codable的出現讓大家可以更輕鬆的處理JSON資料了\n\n---\n\n```swift\nclass ViewController: UIViewController {\n  // 定義json資料\n  let jsonString = \"\"\"   \n  {\n    \"name\": \"Frank\",\n    \"age\":  \"1\",\n    \"adress2\": null\n  }\n  \"\"\".data(using: .utf8)!\n    \n  // 對應的struct\n  struct Student: Codable { \n    let name: String\n    let age: Int?         // 注意這邊型態為Int, \n    let adress: String?   // 若參數可能為null或空值, 需設為optional, 否則轉換會失敗\n  \n    // 自定義struct的properity與json的Key值相對應, 可省略\n    enum CodingKeys: String, CodingKey {  \n      case name\n      case age\n      case adress = \"adress2\"\n    }\n  \n    // 自己處理每個properity的轉換, 可省略. \n    // 這邊是因為age的形態為Int, 但json對應到的值為String的\"1\", 無法直接轉換\n    init(from decoder: Decoder) throws {\n      let container = try decoder.container(keyedBy: CodingKeys.self)\n      let name = try? container.decode(String.self, forKey: .name)\n      let age = try? container.decode(String.self, forKey: .age) \n      let ageInt = (age != nil) ? Int(age!) : 0  //轉換String to Int\n      let adress = try? container.decode(String.self, forKey: .adress)\n\n      self.init(name: name, age: ageInt, adress: adress)\n    }\n\n    init(name: String?, age: Int?, adress:String?) {\n      self.name = name ?? \"\"\n      self.age = age\n      self.adress = adress ?? \"\"\n    }\n  }\n\n  override func viewDidLoad() {\n    super.viewDidLoad()\n\n    guard let student = try? JSONDecoder().decode(Student.self, from: self.jsonString) else {\n      print(\"Error: Couldn't decode data into Student\")\n      return\n    }\n  \n    print(student)\n  }\n\n  override func didReceiveMemoryWarning() {\n    super.didReceiveMemoryWarning()\n  }\n}\n```"
    }
  ]
}