{
  "title": "Creating Photo and Video Effects Using Depth",
  "cells": [
    {
      "type": "markdown",
      "data": "#Photo\n---\n##Matte\n![portrait.png](quiver-image-url/C427CDA18239F2EDF71F821A3188F2C8.png =669x288)\n* Depth僅支援iOS 11以上版本。\n* Matte僅支援iOS 12以上版本。\n<br /><br /><br />\n---\n![detail.png](quiver-image-url/66F47D2F62FF7C315D376CFE75D3FB66.png =703x428)\n1. 分割前景和背景，前景為1.0，背景為0.0。\n2. 適用於前後鏡頭。\n3. 可使用於靜態圖像，且必須有人在照片中。\n<br /><br /><br />\n---\n\n##Loaging\n\n####ImageIO\n```swift\nlet auxiliaryData = CGImageSourceCopyAuxiliaryDataInfoAtIndex(\n            imageSource,    // CGImageSource\n            0,              // Int\n            kCGImageAuxiliaryDataTypePortraitEffectsMatte)  // New ImageIO flag\n```\n\n#### Return\n```swift\n{\n  kCGImageAuxiliaryDataInfoData: CFDataRef,                 // Image data\n  kCGImageAuxiliaryDataInfoDataDescription: CFDictionary,   // Pixiel buffer attributes\n  kCGImageAuxiliaryDataInfoMetadata: CGImageMetadataRef     // Image metadata\n}\n```\n<br />\n\n####AVPortraitEffectsMatte\n```swift\n  let auxiliaryData = CGImageSourceCopyAuxiliaryDataInfoAtIndex(...)\n  let mataData = AVPortraitEffectsMatte(fromDictionaryRepresentation: auxiliaryData)\n```\n#### Reutrn\n```swift\n  let buf = matteData.mattingImage        // CVPixelBuffer\n  let format = matteData.pixelFormatType  // OSType kCVPixelFormatType_OneComponent8\n```\n\n<br /><br /><br />\n\n---\n##Capture\n![AVCapture.png](quiver-image-url/6B82011413A8A930FD66022034910BB2.png =806x552)\n\n<br /><br /><br />\n\n##Loading & Saving\n```swift\n  let otps = [CIImageOption.auxiliaryPortraitEffectsMatte: true]\n  let matte = CIImage(imageWithContentsOfURL:url options:opts)\n```\n```swift\n  let opts = [CIImageOption.portraitEffectsMatteImage: matte]\n  ctx.writeHEIFRepresentation(of: image, to: url, format: .RGBA8, colorSpace: cs, options: opts)  //CIContext\n```\n\n<br /><br /><br />\n\n---\n##影像的大小\n![portraitSize.png](quiver-image-url/E8328FAD74B9975850813704AD0F6A7B.png =1165x612)\n\n<br /><br />"
    },
    {
      "type": "markdown",
      "data": "#Video\n---\n##Depth Map\n\n![DepthMap.png](quiver-image-url/A1BF78F96F9E8454C021410E902AB65F.png =895x429)\n* 近 -> 遠  (紅 -> 藍)\n* 小黑點: 沒有相關的深度資訊\n\n<br />"
    },
    {
      "type": "markdown",
      "data": "---\n##使用TrueDepth stream\n1. 找到 TrueDepth camera\n```swift\nlet videoDeviceDiscoverySession = AVCaptureDevice.DiscoverySession(deviceTypes:\n        [.builtInTrueDepthCamera], mediaType: .video, position: .front)\n```\n2. 初始化捕捉設備的Input\n```swift\nlet videoDeviceInput = try AVCaptureDeviceInput(device: videoDeviceDiscoverySession.devices.first!)\n```\n3. 將Output加入至要取用session\n```swift\nlet depthDataOutput = AVCaptureDepthDataOutput()\nsession.addOutput(depthDataOutput)\ndepthDataOutput.setDelegate(self, callbackQueue: dataOutputQueue)\n```"
    },
    {
      "type": "markdown",
      "data": "---\n##解析度\n![螢幕快照 2019-01-30 下午5.44.56.png](quiver-image-url/318810D864DFA283AE40172AB11550F2.png =886x273)"
    },
    {
      "type": "markdown",
      "data": "---\n##系統負荷調適\n\n![MonitorPressure.png](quiver-image-url/76E79C2A79009BB3542EDCD1E4E93AE3.png =1020x138)\n\n```swift\n  captureDevice.lockForConfiguration()\n  captureDevice.activeVideoMinFrameDuration = CMTimeMake(1, 15) // 15 fps\n  captureDevice.unlockForConfiguration()\n```\n"
    },
    {
      "type": "markdown",
      "data": "---\n## Filtered Depth Map\n* 使用RGB填補黑洞(沒有相關的深度資訊的點)\n\n![螢幕快照 2019-01-28 下午5.11.03.png](quiver-image-url/BECE4F41691656553F3D23D848379AA4.png =285x383)\n\n```swift\n  depthDataOutput.isFilteringEnabled = true // default\n```\n\n![螢幕快照 2019-01-28 下午5.11.19.png](quiver-image-url/04855E5A3ECF4A5E80533BC7DCC1FBD9.png =287x376)"
    },
    {
      "type": "markdown",
      "data": "# Point Cloud\n---\n## 2D to 3D\n![2DTo3D.png](quiver-image-url/0776AF1EC1ECC2A7E02C6F71E002151D.png =1127x586)\n\n---\n## From Depth Map to Point Cloud\n![PointCloud.png](quiver-image-url/7D7A7419BA6BD615A06424E4A7B12C89.png =813x344)\n\n---\n## RGB-D\n![RGBD.png](quiver-image-url/B27AA53FD2CA9B92604FEEE8DA9BBA94.png =855x434)\n\n![RGBD_Finish.png](quiver-image-url/33822521D35D2DF525FA769366494C2E.png =841x415)"
    },
    {
      "type": "markdown",
      "data": "---\n## Getting Face Metadata\n```swift\n  metadataOutput.metadataObjectTypes = [AVMetadataObject.ObjectType.face]\n```\n\n---\n## Binary Mask\n![螢幕快照 2019-01-30 下午2.29.45.png](quiver-image-url/44B4B253F645E79EDE98AB2C1E9DA329.png =1145x516)\n\n```swift\n  let alphaUpscaleFactor = Float(CVPixelBufferGetWidth(videoPixelBuffer)) / Float(depthWidth)\n        let maskImage = depthMaskImage.clampedToExtent()  // 向外重複邊界像素\n            .applyingFilter(\"CIGaussianBlur\", parameters: [\"inputRadius\": 1.0])\n            .applyingFilter(\"CIGammaAdjust\", parameters: [\"inputPower\": 0.5])\n            .cropped(to: depthMaskImage.extent)           // 修剪成原來的圖片\n            .applyingFilter(\"CIBicubicScaleTransform\", parameters: [\"inputScale\": alphaUpscaleFactor])\n```"
    },
    {
      "type": "text",
      "data": ""
    }
  ]
}