{
  "created_at" : 1547631900,
  "tags" : [
    "depth",
    "phote",
    "video",
    "WWDC"
  ],
  "title" : "Creating Photo and Video Effects Using Depth",
  "updated_at" : 1548842236,
  "uuid" : "C5A2F264-BDE1-4D6B-A9E6-6DB1C03D4E70"
}