{
  "title": "4. Integration with Xcode",
  "cells": [
    {
      "type": "markdown",
      "data": "1. Go to **Jenkins Configuration -> System Settingpage**, find '**Xcode Builder**', input your Team Name and Team ID\n![螢幕快照 2019-08-01 下午5.34.26.png](quiver-image-url/5DCCB61BEF8D6448479F2D1C077A36B2.png =567x192)\n\nnext, input your Keychain Name and path, you can find **login.keychain-db** under bellow path, the password is the same as what to login your computer.\n\n`~/Library/Keychains`\n\nthe Keychain Name is your Apple certification title in the Keychain Access App\n![螢幕快照 2019-08-01 下午5.42.55.png](quiver-image-url/45C0761AAAF017AED0DB70F1DE1B23EB.png =574x346)\n![螢幕快照 2019-08-01 下午5.43.01.png](quiver-image-url/204A4F0908418474EE4A4FF90BD016E5.png =570x316)\n\n2. Go to **Jenkins Configuration -> Keychains and Provisioning Profiles Management** page, upload your Login keychain and Provisioning Profiles\nyou can find **login.keychain-db** under bellow path, the password is the same as what to login your computer.\n\n`~/Library/Keychains`\n\nchange your **login.keychain-db** file name to **login.keychain**, the Code Signing Identity is the same as your Apple certification title title: **iPhone Distribution: Chih-Hao Chen (AD2LB8H35R)**\n\n![螢幕快照 2019-08-01 下午5.43.12.png](quiver-image-url/76D9C4AF9395051D15ADA26622883BCC.png =566x342)\n\nupload provisioning profiles of your project, and input the folder path of where you keep the provisioning profiles.\n![螢幕快照 2019-08-01 下午5.43.52.png](quiver-image-url/1B815C741EF5CE3A89B24FDC976F1B04.png =558x217)\n\n3. Go to Your **Project -> Configuration -> Build environment** page, check **Keychains and Code Signing Identities** checkbox and select your keychain\n![螢幕快照 2019-08-01 下午5.43.59.png](quiver-image-url/6A2A12827C002CB42B665739C8A2F076.png =576x321)\n\nnext, check Mobile Provisioning Profiles checkbox and select your provisioning profiles\n![螢幕快照 2019-08-01 下午5.44.04.png](quiver-image-url/0A923AB93388E41B7B981352BC8359D6.png =567x290)\n\n\n4. Go to **Your Project -> Configuration -> Build** page, insert **XCode** setting, input your Development team name and target name, the target name is the same as the target in your XCode project.\n![螢幕快照 2019-08-01 下午5.44.32.png](quiver-image-url/B31B44A181375F52ECE641BF65E2ABB3.png =567x411)\n\nnext,\n* input the **Configuration** column (**Release** or **Debug**)\n* input the **Xcode Schema File** column, if you don't use cocoapod in your project, it will be your target name, or......you should google it again.\n* **check** the **Generate Archive?** check box.\n* **uncheck** the **Pack application, build and sign .ipa?** check box. (for XCode 9 or later)\n![螢幕快照 2019-08-01 下午5.44.38.png](quiver-image-url/B165BB54C1FB2E70F5E3A3DFDAC20BF6.png =565x320)\n\n\n5. Go to **Your Project -> Configuration -> Build -> Code signing & OS X keychain options page**, check the **Unlock Keychain?** check box and select your keychain\n![螢幕快照 2019-08-01 下午5.44.43.png](quiver-image-url/81B5DB7AFA1DF03332686BAC5B39A371.png =548x210)\n\n6.  Go to **Your Project -> Configuration -> Build page**, insert a **Shell** setting.\n![螢幕快照 2019-08-01 下午5.44.49.png](quiver-image-url/D2F230292253DDAF31A797EB4AF9E08B.png =568x411)\n\ninput below command to export ipa file or your project\n`  xcodebuild -exportArchive -archivePath ${WORKSPACE}/build/Release-iphoneos/PasswordKeeper.xcarchive -exportPath ${WORKSPACE}/build -exportOptionsPlist ${WORKSPACE}/ExportOptions.plist    `\n\n\n###Parameters:\n**-archivePath**: you can go to \n`/Users/Shared/Jenkins/Home/workspace/yourProject` directory to find **yourProject.xcarchive**\n![螢幕快照 2019-08-01 下午5.44.59.png](quiver-image-url/AE2A39F2B8880875E6FE82B5CB826E6C.png =565x292)\n\n\n**-exportPath**: the output ipa file path\n**-exportOptionsPlist**: at first time, you should manual build **Archive** by Xcode and export **archive folder**, you will find an **ExportOptions.plist** file in the folder. Copy the **ExportOptions.plist** to `/Users/Shared/Jenkins/Home/workspace/yourProject` directory\n![螢幕快照 2019-08-01 下午5.45.31.png](quiver-image-url/FCD10A7C3D13E2DC3C4066D5460C8A73.png =565x291)\n\n![螢幕快照 2019-08-01 下午5.45.37.png](quiver-image-url/8C0E06437B4C7E809DE4782A2DD3FB5C.png =567x242)\n\n![螢幕快照 2019-08-01 下午5.45.43.png](quiver-image-url/B3A0C35A0F3981129BE4326299A64B16.png =571x323)\n\n\n7. Finally, build your project and you will find the **ipa file** at the export Path\n![螢幕快照 2019-08-01 下午5.45.50.png](quiver-image-url/447C78C65261FD5B1A10F0411EE8DAF6.png =529x407)\n"
    }
  ]
}