{
  "title": "SDK Demo - Framework",
  "cells": [
    {
      "type": "markdown",
      "data": "\n# SDK專案介紹\n\n此專案主要用於 Demo、小測試或樣本，作為參考。\n\n[TOC]\n\n# 專案設定\n\n主要幾個與一般專案不太一樣的地方\n\n- Target\n- 圖片資源加密\n- 雙平台 Target\n- 新檔案的 Header/Creator\n\n### Target\n這份專案將**純程式檔**與**資源檔**拆開來 Build。\n- Framework\n- Bundle\n\n這樣可以在讀取資源時，統一透過 Bundle資源檔去讀取，同時也將資源檔集中管理。\n如果沒有這樣處理的話，Framework存取資源會變得相對麻煩。\n- Ex: Xib\n    ```objc\n    NSBundle *myBundle = [NSBundle bundleForClass:[TestViewController class]];\n    TestViewController *vc = [[TestViewController alloc] initWithNibName:NSStringFromClass([TestViewController class]) bundle:myBundle];\n    ```\n    每個 UIViewController都會需要對應一個 NSBundle。\n\n\n### 圖片資源加密\n\n這是寫在 **Target-Bundle**底下的 **Shell**(目前命名為 Encode Image)\n很重要的一點，**密碼**需要跟**專案**內的一致，否則加密完，App解不開！\n\n> 復用需要注意與修改\n> 1. **檔案相對路徑**\n> 2. **密碼**\n> 3. 腳本用到的工具路徑(**jqtool**，Shell解析 JSON檔用)\n\n### 雙平台 Target\n\n由於虛擬機與實機的處理器架構不同(因此指令集也不同)，期望輸出雙平台都支援的 Framework，就需要另外處理。\n處理的方式可以透過**指令**完成，因此可以藉由新 Target **CrossPlatform**來加入此 Shell程序。\n簡單來說就是個別建置後合併在一起。\n\n> 復用需要注意與修改\n> 1. Target名稱確認\n> 2. 相對路徑確認\n\n### 新檔案的 Header/Creator\n\n基於~~改壞Code查不到~~**幕後工作者**操守原則，在此 Workspace開新的檔案，預設的 Header不會因電腦而異，而需要做統一格式。\n在此路徑下新增了檔案 IDETemplateMacros.plist\n\n```\n<WorkspaceName>.xcworkspace/xcshareddata/IDETemplateMacros.plist\n```\n\nKey為 `FILEHEADER`，Value為\n```\n  ___FILENAME___\n//\n//  Created by Developer on ___DATE___.\n//  Copyright © ___YEAR___ Developer_Team, Inc. All rights reserved.\n//\n```\n\n之後開新檔案的 Header就會由原先的\n\n```\n//\n//  FrameworkManager.m\n//  TemplateService\n//\n//  Created by *** ** on 2019/10/18.\n//  Copyright © 2019 QQToolTeam. All rights reserved.\n//\n```\n\n改為\n```\n//  FrameworkManager.h\n//\n//  Created by Developer on 2019/10/24.\n//  Copyright © 2019 Developer_Team, Inc. All rights reserved.\n//\n```\n\n[Reference](https://oleb.net/blog/2017/07/xcode-9-text-macros/#text-macro-format-reference)\n\n> 復用需要注意與修改\n> 1. Header的格式是否有需要變動\n\n# 檔案架構\n\n主要幾個檔案的職責\n- **TemplateService.h**\n    標頭檔，用戶只需要 import此文件，即可開始使用此 Framework。\n- **FrameworkManager**\n    Framework的主要**進入點**與**對外的方法**。\n    管控 Framework的**生命週期**(開始、結束、服務開始前處理)。\n- **ResourceManager**\n    管控 Framework內部實體資源與資源前處理作業\n    - 加載 Bundle資源(其包含 Image, Xib, 字型...檔案)。\n    - 方法的更換(Swizzling)**控制**。\n- **ResourceSwizzlingManager**\n    管控所有需要 Swizzling的元件，統一由此做處理。\n- **FrameworkBundle**\n    Bundle的子類別，加載了 Framework內部的 Bundle實體資源。\n- **FileManager**\n    管理 Framework內的檔案資訊\n    - 影像、文件、下載、Bundle...等路徑資訊。\n    - 內部檔案解密職責(也可能會加入檔案加密)。\n\n\n"
    }
  ]
}