{
  "title": "MVVM",
  "cells": [
    {
      "type": "markdown",
      "data": "##Architecture\n\n* Model: 如同MVC中的M\n* View: ViewController在MVVM中僅負責處理UI的部分\n* ViewModel: MVC架構中controller處理的邏輯交給ViewModel處理, 與View通常會做data binding.\n  > 優點: 分工更清楚, 更方便測試\n  > 缺點: 跟MVC有相同的問題, 只是程式法肥大的部分從ViewController變成了ViewModel\n\n---"
    },
    {
      "type": "markdown",
      "data": "##Observable Object\n\n用來做data binding\n```swift\nclass ObservableObject<T> {\n  var value: T {\n    didSet {\n      self.valueChangedClosure?(self.value)\n    }\n  }\n\n  private var valueChangedClosure: ((T) -> (Void))?\n    \n  init(value: T) {\n    self.value = value\n  }\n    \n  func addObserver(isFireNow: Bool = true, _ valueChangedClosure: @escaping (T) -> (Void)) {\n    self.valueChangedClosure = valueChangedClosure\n  \n    if isFireNow {\n      self.valueChangedClosure?(self.value)\n    }\n  }\n    \n  func removeObserver() {\n    self.valueChangedClosure = nil\n  }\n}\n```\n<br></br>\nex.\n```swift\nclass MyViewModel: NSObject {\n  var titles = ObservableObject<[String]>(value: []) \n  var selectedIndex = ObservableObject<NSInteger>(value: 0)\n}\n\nprivate func initDataBinding() {\n  self.viewModel.titles.addObserver { [weak self] (titles) -> (Void) in\n    self?.collectionView.reloadData()\n  }\n  \n  self.viewModel.selectedIndex.addObserver { [weak self] (titles) -> (Void) in\n    self?.collectionView.reloadData()\n  }\n}\n```"
    }
  ]
}