{
  "title": "Docker",
  "cells": [
    {
      "type": "markdown",
      "data": "參考資料:\n\n[uwsgi-nginx-flask-docker](https://github.com/tiangolo/uwsgi-nginx-flask-docker)\n\nJake Wright's \n1. [YouTube tutorials](https://www.youtube.com/user/jaketvee)\n2. [Git Hub](https://github.com/jakewright/tutorials)\n\nArcher Huang's [Git Hub](https://github.com/ArcherHuang/Docker)\n\nDockerfile [command line](https://itbilu.com/linux/docker/VyhM5wPuz.html#cmd-label)\n"
    },
    {
      "type": "markdown",
      "data": "## 執行docker\n\n1. 產生image: docker build {dockerfile}\n2. 執行image: \n- docker run -t {image_id}\n- docker run -v {src}:{des} {image_id}\n- docker run -p {hostPort}:{containerPort} {image_id}\n- docker run -d --name {containerName} -p {hostPort}:{containerPort} {image_id}\n\n---\nimage_id: image name\nsrc: 執行指定的Dockerfile絕對路徑\ndes: 執行後的絕對路徑\n"
    },
    {
      "type": "markdown",
      "data": "---\n### docker常用指令\n\n* 刪除所有的image:\ndocker rmi $(docker images -q)\n* 刪除所有的container:\ndocker rm $(docker ps -a -q)"
    }
  ]
}