{
  "title": "Class vs Struct",
  "cells": [
    {
      "type": "markdown",
      "data": "* Class 是 reference type, 可以被繼承\n* Struct 是 value type, 不可被繼承\n* Struct 有 memberwise initializer\n\n```swift\nlet structA = StructA()\n\nstructA.width = 500   // 會造成錯誤, struct為let就不能改參數值\n\n\nlet classA = ClassA()\n\nclassA.width = 500    // ok\n```\n\n---\n\n> Reference Type: Class, Function, Closure\nValue Type: Struct, Array, Enum, Integer, Dictionary,..etc"
    }
  ]
}