{
  "title": "關於性能",
  "cells": [
    {
      "type": "markdown",
      "data": "###CPU負擔與能耗\n* Xcode開發工具可以監測CPU使用\n* Xcode的Impact可以查看當前的耗電情況\n* 可以使用代碼取得電池電量與狀態\n  ```[UIDevice currentDevice].batteryLevel```\n  ```[UIDevice currentDevice].batteryState```"
    },
    {
      "type": "markdown",
      "data": "###動畫流暢度\niOS系統的極限幀率為60FPS\n```Objective-C\n@property (nonatomic, strong) CADisplayLink *link;\n\nself.link = [CADisplayLink displayLinkWithTarget:self selector:@selector(sel)];\n[self.link addToRunLoop:[NSRunLoop mainRunLoop] forMode:NSDefaultRunLoopMode];\n\n- (void)sel {\n    static double lastTimestamp = .1;\n    static int frame = 0;\n    if (lastTimestamp == .1) {\n        lastTimestamp = self.link.timestamp;\n        return;\n    }\n    \n    // 計算在1秒內執行多少次\n    frame++;\n    NSTimeInterval interval = self.link.timestamp - lastTimestamp;\n    if (interval < 1) {\n        return;\n    }\n    lastTimestamp = self.link.timestamp;\n    NSLog(@\"%d\", frame);\n    frame = 0;\n}\n```"
    },
    {
      "type": "markdown",
      "data": "###為自定義段點添加行為\n* Debugger Command: 可以使用LLDB指令, 每次執行到此斷點都打印資料到LLDB上\n* Sound: 可以設置音效, 每次執行到此斷點時Xcode會播放此音效\n* Apple Script: 可以選擇使用Compile編譯腳本, 或是使用Test來測試腳本是否正常\n  ![螢幕快照 2019-09-06 上午11.40.29.png](quiver-image-url/07BD8E1687C97FB3A11528015F202EC5.png =449x243)"
    },
    {
      "type": "markdown",
      "data": "###添加全域斷點\n* Swift Error Breakpoint: 如果添加此斷點,  程序會暫停在使用throw拋出異常的代碼處\n* Exceptiob Breakpoint: 當發生數組溢位或是非空參數為nil等異常時觸發, 通常會Crash在main()函式\n* OpenGL ES Error Breakpoint: 當OpenGL ES發生錯誤時, 會停留在錯誤的地方\n* Symbolic Breakpoint: 最強大的全域斷點, 可以設置執行到某一個函式就觸發斷點, 可以是C函數也可以是Objective-C函數, 也可以指定具體是某個Class的Function. ex. [UIView initWithFrame:]\n* Constraint Error Breakpoint: 當有AutoLayout的控件出現約束錯誤時, 會停在處錯處, 並打印結果\n* Test Failure Breakpoint"
    }
  ]
}