{
  "title": "46. Permutations",
  "cells": [
    {
      "type": "markdown",
      "data": "Given a collection of **distinct** integers, return all possible permutations.\n\n###Example:\n```\nInput: [1,2,3]\nOutput:\n[\n  [1,2,3],\n  [1,3,2],\n  [2,1,3],\n  [2,3,1],\n  [3,1,2],\n  [3,2,1]\n]\n```\n\n---"
    },
    {
      "type": "markdown",
      "data": "###Solution:\n```swift\nclass Solution {\n    \n    func permute(_ nums: [Int]) -> [[Int]] {\n        var output: [[Int]] = [];\n        var array: [Int] = [];\n        \n        permall(nums: nums, array: array, output: &output)\n        \n        return output;\n    }\n    \n    func permall(nums: [Int], array: [Int], output: inout [[Int]]) {\n        if(nums.count == 0) {\n           // array.append(nums[0]);  \n           // print(\"array: \\(array)\");\n            output.append(array);\n        }\n        else {\n            for i in 0..<(nums.count) {\n                var newArray = array\n                newArray.append(nums[i]);   \n                var newNums = nums\n                newNums.remove(at: i);\n                permall(nums: newNums, array: newArray, output: &output)\n            }\n        }\n    }\n}\n```"
    }
  ]
}